{
    "toolname":{
        "0":"kraken_212_lemmi",
        "1":"kraken_212_lemmi",
        "2":"kraken_212_lemmi",
        "3":"kraken_212_lemmi",
        "4":"kraken_212_lemmi",
        "5":"kraken_212_lemmi"
    },
    "sample":{
        "0":"ci_prok_gtdb-e001",
        "1":"ci_prok_gtdb-e001",
        "2":"ci_prok_gtdb-e001",
        "3":"ci_prok_gtdb",
        "4":"ci_prok_gtdb",
        "5":"ci_prok_gtdb"
    },
    "rank":{
        "0":"family",
        "1":"genus",
        "2":"species",
        "3":"family",
        "4":"genus",
        "5":"species"
    },
    "value":{
        "0":0.0,
        "1":0.0,
        "2":0.0,
        "3":0.0,
        "4":0.0,
        "5":0.0
    }
}