{
    "repository": "N/A",
    "website": "N/A",
    "git": "N/A",
    "publication_doi": "N/A",
    "comments": "Edit the json file in public data with the name of the tool",
    "benchmarking_comments": ""
}
