# LEMMI content selected from NCBI+GTDB data
ncbi_genbank_assembly_accession	ncbi_taxid	ncbi_taxonomy	gtdb_taxonomy	__gtdb_taxid	__lineage	__gtdb_accession	genome_size
GCA_000010845.1	634453	d__Bacteria;p__Proteobacteria;c__Alphaproteobacteria;o__Rhodospirillales;f__Acetobacteraceae;g__Acetobacter;s__Acetobacter pasteurianus	d__Bacteria;p__Proteobacteria;c__Alphaproteobacteria;o__Acetobacterales;f__Acetobacteraceae;g__Acetobacter;s__Acetobacter pasteurianus	10	root;cellular organisms;Bacteria;Proteobacteria;Alphaproteobacteria;Rhodospirillales;Acetobacteraceae;Acetobacter;Acetobacter pasteurianus;Acetobacter pasteurianus IFO 3283-01	RS_GCF_000010845.1	3339669
